{
   "controller": {
   },
   "workers": [
      {
         "type": "router",
         "realms": [
            {
               "name": "realm1",
               "roles": [
                  {
                     "name": "anonymous",
                     "permissions": [
                        {
                           "uri": "*",
                           "publish": false,
                           "subscribe": true,
                           "call": false,
                           "register": false
                        }
                     ]
                  },
                  {
                     "name": "server",
                     "permissions": [
                        {
                           "uri": "*",
                           "publish": true,
                           "subscribe": false,
                           "call": false,
                           "register": false
                        }
                     ]
                  }
               ]
            }
         ],
         "transports": [
            {
               "type": "websocket",
               "endpoint": {
                  "type": "tcp",
                  "port": 8080
               }
            },
            {
               "type": "web",
               "endpoint": {
                  "type": "tcp",
                  "port": 5555
               },
               "paths": {
                  "/": {
                     "type": "publisher",
                     "realm": "realm1",
                     "role": "server",
                     "options": {
                            "require_ip": ["127.0.0.1"],
                            "secret": "kkjH68GiuUZ",
                            "key": "test"
                            }
                  }
               }
            }
         ]
      },
     {
       "type": "guest",
       "executable": "php",
        "arguments": [
           "../crossbarWorker/CrossbarWorker.php"
        ]
     }
   ]
}
